Simulatie_test
320


1

0  20  0  (4, 30, 0.3, 2, 5, 2, 1.5, 3.5, 0.1, 1000, 0.01, 1, 0.1, 0.2, -4, -0.2, 1)
20  20  0  (4, 30, 0.3, 2, 5, 2, 1.5, 3.5, 0.1, 1000, 0.01, 1, 0.1, 0.2, -4, -0.2, 1)
40  20  0  (4, 30, 0.3, 2, 5, 2, 1.5, 3.5, 0.1, 1000, 0.01, 1, 0.1, 0.2, -4, -0.2, 1)
60  20  0  (4, 30, 0.3, 2, 5, 2, 1.5, 3.5, 0.1, 1000, 0.01, 1, 0.1, 0.2, -4, -0.2, 1)
80  20  0  (4, 30, 0.3, 2, 5, 2, 1.5, 3.5, 0.1, 1000, 0.01, 1, 0.1, 0.2, -4, -0.2, 1)
100  20  0  (4, 30, 0.3, 2, 5, 2, 1.5, 3.5, 0.1, 1000, 0.01, 1, 0.1, 0.2, -4, -0.2, 1)
120  20  0  (4, 30, 0.3, 2, 5, 2, 1.5, 3.5, 0.1, 1000, 0.01, 1, 0.1, 0.2, -4, -0.2, 1)
140  20  0  (4, 30, 0.3, 2, 5, 2, 1.5, 3.5, 0.1, 1000, 0.01, 1, 0.1, 0.2, -4, -0.2, 1)
160  20  0  (4, 30, 0.3, 2, 5, 2, 1.5, 3.5, 0.1, 1000, 0.01, 1, 0.1, 0.2, -4, -0.2, 1)
180  20  0  (4, 30, 0.3, 2, 5, 2, 1.5, 3.5, 0.1, 1000, 0.01, 1, 0.1, 0.2, -4, -0.2, 1)
200  20  0  (4, 30, 0.3, 2, 5, 2, 1.5, 3.5, 0.1, 1000, 0.01, 1, 0.1, 0.2, -4, -0.2, 1)
220  20  0  (4, 30, 0.3, 2, 5, 2, 1.5, 3.5, 0.1, 1000, 0.01, 1, 0.1, 0.2, -4, -0.2, 1)
240  20  0  (4, 30, 0.3, 2, 5, 2, 1.5, 3.5, 0.1, 1000, 0.01, 1, 0.1, 0.2, -4, -0.2, 1)
260  30  0  (4, 30, 0.3, 2, 5, 2, 1.5, 3.5, 0.1, 1000, 0.01, 1, 0.1, 0.2, -4, -0.2, 1)
280  30  0  (4, 30, 0.3, 2, 5, 2, 1.5, 3.5, 0.1, 1000, 0.01, 1, 0.1, 0.2, -4, -0.2, 1)
300  30  0  (4, 30, 0.3, 2, 5, 2, 1.5, 3.5, 0.1, 1000, 0.01, 1, 0.1, 0.2, -4, -0.2, 1)
